<svg id="design" xmlns="http://www.w3.org/2000/svg" width="16" height="16" viewBox="0 0 16 16">
  <path id="Path_48" data-name="Path 48" d="M14.723,3.915a.255.255,0,0,0,.255-.255V2.553h.766A.255.255,0,0,0,16,2.3V.255A.255.255,0,0,0,15.745,0H13.7a.255.255,0,0,0-.255.255v.766H2.553V.255A.255.255,0,0,0,2.3,0H.255A.255.255,0,0,0,0,.255V2.3a.255.255,0,0,0,.255.255h.766V13.447H.255A.255.255,0,0,0,0,13.7v2.043A.255.255,0,0,0,.255,16H2.3a.255.255,0,0,0,.255-.255v-.766H13.447v.766A.255.255,0,0,0,13.7,16h2.043A.255.255,0,0,0,16,15.745V13.7a.255.255,0,0,0-.255-.255h-.766V4.681a.255.255,0,0,0-.511,0v8.766H13.7a.255.255,0,0,0-.255.255v.766H2.553V13.7a.255.255,0,0,0-.255-.255H1.532V2.553H2.3A.255.255,0,0,0,2.553,2.3V1.532H13.447V2.3a.255.255,0,0,0,.255.255h.766V3.66A.255.255,0,0,0,14.723,3.915Zm-.766,10.042h1.532v1.532H13.957ZM2.043,15.489H.511V13.957H2.043Zm0-13.447H.511V.511H2.043ZM13.957.511h1.532V2.043H13.957Z" fill="#1a2a47"/>
  <path id="Path_49" data-name="Path 49" d="M109.191,100.26a.255.255,0,0,0-.255-.255h-8.681a.255.255,0,0,0-.255.255v4.34a.255.255,0,0,0,.255.255h8.681a.255.255,0,0,0,.255-.255Zm-8.681.413,3.514,1.757-3.514,1.757Zm.826-.158h6.518l-3.259,1.629Zm3.259,2.2,3.259,1.629h-6.518Zm.571-.285,3.514-1.757v3.514Z" transform="translate(-96.596 -96.601)" fill="#1a2a47"/>
  <path id="Path_50" data-name="Path 50" d="M104.085,355h-3.83a.255.255,0,1,0,0,.511h3.83a.255.255,0,1,0,0-.511Z" transform="translate(-96.596 -342.915)" fill="#1a2a47"/>
  <path id="Path_51" data-name="Path 51" d="M246.585,355h-3.83a.255.255,0,0,0,0,.511h3.83a.255.255,0,0,0,0-.511Z" transform="translate(-234.245 -342.915)" fill="#1a2a47"/>
  <path id="Path_52" data-name="Path 52" d="M104.085,323.125h-3.83a.255.255,0,1,0,0,.511h3.83a.255.255,0,1,0,0-.511Z" transform="translate(-96.596 -312.125)" fill="#1a2a47"/>
  <path id="Path_53" data-name="Path 53" d="M246.585,323.125h-3.83a.255.255,0,0,0,0,.511h3.83a.255.255,0,0,0,0-.511Z" transform="translate(-234.245 -312.125)" fill="#1a2a47"/>
  <path id="Path_54" data-name="Path 54" d="M104.085,291.25h-3.83a.255.255,0,1,0,0,.511h3.83a.255.255,0,1,0,0-.511Z" transform="translate(-96.596 -281.335)" fill="#1a2a47"/>
  <path id="Path_55" data-name="Path 55" d="M246.585,291.25h-3.83a.255.255,0,0,0,0,.511h3.83a.255.255,0,0,0,0-.511Z" transform="translate(-234.245 -281.335)" fill="#1a2a47"/>
  <path id="Path_56" data-name="Path 56" d="M108.936,259.374h-8.681a.255.255,0,1,0,0,.511h8.681a.255.255,0,0,0,0-.511Z" transform="translate(-96.596 -250.544)" fill="#1a2a47"/>
</svg>
